method,iterations,input_rows,time,train_error,test_error,xvalidation,decay_multiplier
mlp,-1,10000,767.1216258,0.173719585573283,0.174991752266742,20,
mlp,-1,10000,585.2986305,0.173955090436939,0.175143616937469,20,
mlp,-1,10000,549.7536369,0.173682780556277,0.174975908601798,20,
mlp,-1,10000,767.245436,0.173572152373291,0.175251171573774,20,
mlp,-1,10000,480.8323656,0.173815568890027,0.174988784466344,20,
mlp,-1,10000,624.8062096,0.173124139313099,0.175236830868599,20,
mlp,-1,10000,889.5424449,0.173440318586469,0.175102809606909,20,
mlp,-1,10000,482.1292112,0.173549831612721,0.175868718744119,20,
mlp,-1,10000,598.9507305,0.173855201221129,0.175235395841768,20,
mlp,-1,10000,514.9970782,0.173639327122371,0.174995835170865,20,
,,,,,,,
,,,,,,,
,,,,,,,
,,,,0.173124139313099,,,
,,,,0.173955090436939,,,
,,,,0.173635399568561,,,
,,,,0.000236429315353,,,
