method,iterations,input_rows,time,train_error,test_error,xvalidation,decay_multiplier
som,10,5000,46.3838123,0.0603814804930272,NA,NA,1.5
som,10,5000,50.0909738,0.0603814804930272,NA,NA,1.5
som,10,5000,53.9547977,0.0603814804930272,NA,NA,1.5
som,10,5000,53.4173923,0.0603814804930272,NA,NA,1.5
som,10,5000,53.1984427,0.0603814804930272,NA,NA,1.5
som,10,5000,53.2925106,0.0603814804930272,NA,NA,1.5
som,10,5000,53.2098383,0.0603814804930272,NA,NA,1.5
som,10,5000,52.4316122,0.0603814804930272,NA,NA,1.5
som,10,5000,51.4761571,0.0603814804930272,NA,NA,1.5
som,10,5000,53.6988679,0.0603814804930272,NA,NA,1.5
som,10,10000,136.9407014,0.0727157474164145,NA,NA,1.5
som,10,10000,138.2599223,0.0727157474164145,NA,NA,1.5
som,10,10000,137.2531422,0.0727157474164145,NA,NA,1.5
som,10,10000,135.6190313,0.0727157474164145,NA,NA,1.5
som,10,10000,136.7535348,0.0727157474164145,NA,NA,1.5
som,10,10000,138.0400037,0.0727157474164145,NA,NA,1.5
som,10,10000,137.8748616,0.0727157474164145,NA,NA,1.5
som,10,10000,137.4122959,0.0727157474164145,NA,NA,1.5
som,10,10000,129.7932982,0.0727157474164145,NA,NA,1.5
som,10,10000,137.7367653,0.0727157474164145,NA,NA,1.5
